11/02/16 20:21

Problem 1 (5 points):
Score += 5

Problem 2 (5 points):
Not correct, plot Gauss and Jacobi
Score += 0

Problem 3 (5 points):
Score += 5

Problem 4 (5 points):
ImportError: cannot import name gauss_seidel

Problem 5 (5 points):
Score += 5

Problem 6 (5 points):
Score += 5

Problem 7 (5 points):
Score += 5

Problem 8 (5 points):
ImportError: cannot import name finite_difference

Problem 9 (5 points):
Score += 5

Total score: 30/45 = 66.67%

-------------------------------------------------------

11/11/16 07:58

Problem 1 (5 points):
Score += 5

Problem 2 (5 points):
Not currect, error should be changing
Score += 2

Problem 3 (5 points):
Score += 5

Problem 4 (5 points):
Score += 5

Problem 5 (5 points):
Score += 5

Problem 6 (5 points):
Score += 5

Problem 7 (5 points):
Score += 5

Problem 8 (5 points):
Score += 5

Problem 9 (5 points):
Score += 5

Total score: 42/45 = 93.33%

Great job!

-------------------------------------------------------

11/15/16 09:37

Problem 1 (5 points):
Score += 5

Problem 2 (5 points):
prob2() does not match specifications
Score += 2

Problem 3 (5 points):
Score += 5

Problem 4 (5 points):
Score += 5

Problem 5 (5 points):
Score += 5

Problem 6 (5 points):
Score += 5

Problem 7 (5 points):
Score += 5

Problem 8 (5 points):
Score += 5

Problem 9 (5 points):
Score += 5

Total score: 42/45 = 93.33%

Great job!

-------------------------------------------------------

11/17/16 11:08

Problem 1 (5 points):
Score += 5

Problem 2 (5 points):
prob2() does not match specifications
Score += 2

Problem 3 (5 points):
Score += 5

Problem 4 (5 points):
Score += 5

Problem 5 (5 points):
Score += 5

Problem 6 (5 points):
Score += 5

Problem 7 (5 points):
Score += 5

Problem 8 (5 points):
Score += 5

Problem 9 (5 points):
Score += 5

Total score: 42/45 = 93.33%

Great job!

-------------------------------------------------------

